^C:\USERS\WW\DOCUMENTS\VISUAL STUDIO 2013\PROJECTS\CONSOLEAPPLICATION4\CONSOLEAPPLICATION4\SOURCE.CPP
C:\USERS\WW\DOCUMENTS\VISUAL STUDIO 2013\PROJECTS\CONSOLEAPPLICATION4\CONSOLEAPPLICATION4\DEBUG\VC120.PDB
C:\USERS\WW\DOCUMENTS\VISUAL STUDIO 2013\PROJECTS\CONSOLEAPPLICATION4\CONSOLEAPPLICATION4\DEBUG\VC120.IDB
